<svg width="1390" height="792" viewBox="0 0 1390 792" fill="none" xmlns="http://www.w3.org/2000/svg">
<g filter="url(#filter0_f_911:673)">
<ellipse cx="695" cy="202" rx="395" ry="290" fill="#1B76FF" fill-opacity="0.11"/>
</g>
<defs>
<filter id="filter0_f_911:673" x="0" y="-388" width="1390" height="1180" filterUnits="userSpaceOnUse" color-interpolation-filters="sRGB">
<feFlood flood-opacity="0" result="BackgroundImageFix"/>
<feBlend mode="normal" in="SourceGraphic" in2="BackgroundImageFix" result="shape"/>
<feGaussianBlur stdDeviation="150" result="effect1_foregroundBlur_911:673"/>
</filter>
</defs>
</svg>
