<svg width="380" height="30" viewBox="0 0 380 30" fill="none" xmlns="http://www.w3.org/2000/svg">
<path fill-rule="evenodd" clip-rule="evenodd" d="M47.7057 0C41.1256 0 37.6528 2.92449 37.6528 14.8052C37.6528 26.6859 41.217 29.519 47.7057 29.519C54.1944 29.519 57.6672 26.7773 57.6672 14.8052C57.6672 3.10727 54.2858 0 47.7057 0ZM47.6143 6.21453C49.8076 6.21453 50.9043 7.4026 50.9043 14.8052C50.9043 22.482 49.7162 23.3959 47.5229 23.3959C45.4209 23.3959 44.3242 22.482 44.3242 14.8052C44.3242 7.4026 45.4209 6.21453 47.6143 6.21453Z" fill="url(#paint0_linear_1552:2814)"/>
<path fill-rule="evenodd" clip-rule="evenodd" d="M28.6052 0.274658H19.1006V29.0626H25.7721V19.2838H28.6052C34.7283 19.2838 36.7389 16.3593 36.7389 9.77923C36.7389 2.6508 34.5455 0.274658 28.6052 0.274658ZM29.8846 9.96201C29.8846 13.3434 29.3363 13.4348 27.6913 13.4348H25.6807V6.21502H27.6913C29.2449 6.21502 29.8846 6.58058 29.8846 9.96201Z" fill="url(#paint1_linear_1552:2814)"/>
<path fill-rule="evenodd" clip-rule="evenodd" d="M150.063 9.32228C150.063 14.6229 148.874 16.9077 146.224 18.0957L150.428 29.2453H143.482L139.735 19.0096H139.096V29.1539L125.662 29.1539L124.748 24.493H119.081L118.168 29.0626H111.77V29.1534H97.4218V0.365479H104.093V22.9388H111.77V28.658L118.168 0.274658H126.21L132.424 27.5486V0.274658H141.929C147.778 0.274658 150.063 2.74219 150.063 9.32228ZM139.096 13.0693H141.106C142.751 13.0693 143.391 12.8865 143.391 9.59645C143.391 6.30641 142.751 6.21502 141.106 6.21502H139.096V13.0693ZM123.651 18.6441L122.006 9.68784L120.361 18.6441H123.651Z" fill="url(#paint2_linear_1552:2814)"/>
<path fill-rule="evenodd" clip-rule="evenodd" d="M58.8554 0.274658H68.4513C74.3917 0.274658 76.5851 2.6508 76.5851 9.77923C76.5851 16.3593 74.4831 19.2838 68.4513 19.2838H65.6183V29.0626H58.9468L58.8554 0.274658ZM67.5374 13.4348C69.1825 13.4348 69.7308 13.3434 69.7308 9.96201C69.7308 6.58058 69.0911 6.21502 67.5374 6.21502H65.5269V13.4348H67.5374Z" fill="url(#paint3_linear_1552:2814)"/>
<path d="M77.4987 0.365479V19.1918C77.4987 27.417 81.4285 29.5189 86.7291 29.5189C92.2125 29.5189 96.0509 27.3256 96.0509 19.1918V0.365479H89.6536V18.5521C89.6536 22.6647 88.3741 23.213 86.9119 23.213C85.2669 23.213 84.1702 22.5733 84.1702 18.5521V0.365479H77.4987Z" fill="url(#paint4_linear_1552:2814)"/>
<path d="M369.398 11.8806L373.054 0.365479H380L372.597 20.1058V29.2448H365.834V20.0144L358.798 1.10461V29.2448H352.126V17.6382H347.283V29.2448H340.611V0.365479H347.283V11.5151H352.126V0.365479H365.651L369.398 11.8806Z" fill="url(#paint5_linear_1552:2814)"/>
<path d="M264.026 14.8051C264.026 3.65553 265.854 0.365479 273.987 0.365479H282.304L280.933 6.58001H274.079C271.52 6.58001 270.697 8.68198 270.697 15.0793C270.697 21.4766 271.154 23.3958 273.622 23.3958C275.632 23.3958 276.089 21.8422 276.089 19.2832V18.1866H273.348V12.2462H282.578V17.4554C282.578 27.2342 279.836 29.5189 273.622 29.5189C266.493 29.5189 264.026 26.6858 264.026 14.8051Z" fill="url(#paint6_linear_1552:2814)"/>
<path fill-rule="evenodd" clip-rule="evenodd" d="M301.404 9.32228C301.404 14.6229 300.216 16.9077 297.566 18.0957L301.357 28.1504L307.62 0.365479H315.662L322.151 29.2448H315.022L314.2 24.5839H308.625L307.711 29.1534H301.735L301.77 29.2453H294.824L291.077 19.0096H290.438V29.2453H283.766V0.274658H293.271C299.12 0.274658 301.404 2.74219 301.404 9.32228ZM290.438 13.0693H292.448C294.093 13.0693 294.733 12.9779 294.733 9.68784C294.733 6.3978 294.093 6.30641 292.448 6.30641H290.438V13.0693ZM313.103 18.6435L311.458 9.77866L309.813 18.7349L313.103 18.6435Z" fill="url(#paint7_linear_1552:2814)"/>
<path fill-rule="evenodd" clip-rule="evenodd" d="M328.822 29.2448H322.151L322.059 0.365479H331.655C337.596 0.365479 339.789 2.74162 339.789 9.87005C339.789 16.4501 337.687 19.3746 331.655 19.3746H328.822V29.2448ZM330.741 13.5257C332.386 13.5257 333.026 13.4343 333.026 10.0528C333.026 6.6714 332.478 6.39723 330.741 6.39723H328.731V13.617L330.741 13.5257Z" fill="url(#paint8_linear_1552:2814)"/>
<path fill-rule="evenodd" clip-rule="evenodd" d="M232.313 6.58001H227.513C228.092 8.67288 228.384 11.3683 228.384 14.8052C228.384 26.7773 224.911 29.519 218.422 29.519C211.934 29.519 208.37 26.6859 208.37 14.8052C208.37 2.92449 211.842 0 218.422 0C222.832 0 225.805 1.3956 227.287 5.83732V0.365479H244.011V6.10971C245.479 1.38283 248.534 0 253.059 0C259.639 0 263.02 3.10727 263.02 14.8052C263.02 26.7773 259.548 29.519 253.059 29.519C246.57 29.519 243.006 26.6859 243.006 14.8052C243.006 11.359 243.298 8.6663 243.874 6.58001H238.985V29.2448H232.313V6.58001ZM221.621 14.8052C221.621 7.4026 220.616 6.21453 218.331 6.21453C216.046 6.21453 215.041 7.4026 215.041 14.8052C215.041 22.482 216.138 23.3959 218.331 23.3959C220.524 23.3959 221.621 22.482 221.621 14.8052ZM252.968 6.21453C255.252 6.21453 256.258 7.4026 256.258 14.8052C256.258 22.482 255.161 23.3959 252.968 23.3959C250.774 23.3959 249.678 22.482 249.678 14.8052C249.678 7.4026 250.683 6.21453 252.968 6.21453Z" fill="url(#paint9_linear_1552:2814)"/>
<path d="M195.849 0.365479H189.086V29.2448H195.849V17.6382H200.601V29.2448H207.364V0.365479H200.601V11.5151H195.849V0.365479Z" fill="url(#paint10_linear_1552:2814)"/>
<path fill-rule="evenodd" clip-rule="evenodd" d="M179.947 0.365479H170.351L170.443 29.2448H177.114V19.3746H179.947C185.979 19.3746 188.081 16.4501 188.081 9.87005C188.081 2.74162 185.888 0.365479 179.947 0.365479ZM181.318 10.0528C181.318 13.4343 180.77 13.5257 179.125 13.5257L177.114 13.617V6.39723H179.125C180.77 6.39723 181.318 6.6714 181.318 10.0528Z" fill="url(#paint11_linear_1552:2814)"/>
<path d="M13.4344 0.274658H0V2.46802H13.4344V0.274658Z" fill="#34354F"/>
<path d="M13.4344 2.46802H0V4.66138H13.4344V2.46802Z" fill="#40405F"/>
<path d="M13.4344 4.66138H0V6.85474H13.4344V4.66138Z" fill="#48486A"/>
<path d="M13.4344 6.85474H0V9.0481H13.4344V6.85474Z" fill="#57577F"/>
<path d="M13.4344 9.0481H0V11.2415H13.4344V9.0481Z" fill="#5D5D89"/>
<path d="M13.4344 11.2415H0V13.4348H13.4344V11.2415Z" fill="#656593"/>
<path d="M13.4344 13.4348H0V15.6282H13.4344V13.4348Z" fill="#6C6C9E"/>
<path d="M13.4344 15.6282H0V17.8215H13.4344V15.6282Z" fill="#7373A5"/>
<path d="M13.4344 17.8215H0V20.0149H13.4344V17.8215Z" fill="#7777AC"/>
<path d="M13.4344 20.0149H0V22.2083H13.4344V20.0149Z" fill="#7D7DB5"/>
<path d="M13.4344 22.2083H0V24.4016H13.4344V22.2083Z" fill="#8282C4"/>
<path d="M13.4344 24.4016H0V26.595H13.4344V24.4016Z" fill="#8D8DD5"/>
<path d="M13.4344 26.595H0V28.7883H13.4344V26.595Z" fill="#9999E8"/>
<defs>
<linearGradient id="paint0_linear_1552:2814" x1="352.411" y1="29.2526" x2="352.411" y2="0.365479" gradientUnits="userSpaceOnUse">
<stop stop-color="#5B5A84"/>
<stop offset="1" stop-color="#33344E"/>
</linearGradient>
<linearGradient id="paint1_linear_1552:2814" x1="352.411" y1="29.2526" x2="352.411" y2="0.365479" gradientUnits="userSpaceOnUse">
<stop stop-color="#5B5A84"/>
<stop offset="1" stop-color="#33344E"/>
</linearGradient>
<linearGradient id="paint2_linear_1552:2814" x1="352.411" y1="29.2526" x2="352.411" y2="0.365479" gradientUnits="userSpaceOnUse">
<stop stop-color="#5B5A84"/>
<stop offset="1" stop-color="#33344E"/>
</linearGradient>
<linearGradient id="paint3_linear_1552:2814" x1="352.411" y1="29.2526" x2="352.411" y2="0.365479" gradientUnits="userSpaceOnUse">
<stop stop-color="#5B5A84"/>
<stop offset="1" stop-color="#33344E"/>
</linearGradient>
<linearGradient id="paint4_linear_1552:2814" x1="352.411" y1="29.2526" x2="352.411" y2="0.365479" gradientUnits="userSpaceOnUse">
<stop stop-color="#5B5A84"/>
<stop offset="1" stop-color="#33344E"/>
</linearGradient>
<linearGradient id="paint5_linear_1552:2814" x1="352.411" y1="29.2526" x2="352.411" y2="0.365479" gradientUnits="userSpaceOnUse">
<stop stop-color="#5B5A84"/>
<stop offset="1" stop-color="#33344E"/>
</linearGradient>
<linearGradient id="paint6_linear_1552:2814" x1="352.411" y1="29.2526" x2="352.411" y2="0.365479" gradientUnits="userSpaceOnUse">
<stop stop-color="#5B5A84"/>
<stop offset="1" stop-color="#33344E"/>
</linearGradient>
<linearGradient id="paint7_linear_1552:2814" x1="352.411" y1="29.2526" x2="352.411" y2="0.365479" gradientUnits="userSpaceOnUse">
<stop stop-color="#5B5A84"/>
<stop offset="1" stop-color="#33344E"/>
</linearGradient>
<linearGradient id="paint8_linear_1552:2814" x1="352.411" y1="29.2526" x2="352.411" y2="0.365479" gradientUnits="userSpaceOnUse">
<stop stop-color="#5B5A84"/>
<stop offset="1" stop-color="#33344E"/>
</linearGradient>
<linearGradient id="paint9_linear_1552:2814" x1="352.411" y1="29.2526" x2="352.411" y2="0.365479" gradientUnits="userSpaceOnUse">
<stop stop-color="#5B5A84"/>
<stop offset="1" stop-color="#33344E"/>
</linearGradient>
<linearGradient id="paint10_linear_1552:2814" x1="352.411" y1="29.2526" x2="352.411" y2="0.365479" gradientUnits="userSpaceOnUse">
<stop stop-color="#5B5A84"/>
<stop offset="1" stop-color="#33344E"/>
</linearGradient>
<linearGradient id="paint11_linear_1552:2814" x1="352.411" y1="29.2526" x2="352.411" y2="0.365479" gradientUnits="userSpaceOnUse">
<stop stop-color="#5B5A84"/>
<stop offset="1" stop-color="#33344E"/>
</linearGradient>
</defs>
</svg>
