<svg width="174" height="50" viewBox="0 0 174 50" fill="none" xmlns="http://www.w3.org/2000/svg">
<path d="M37.5439 4.32252C37.4569 5.71517 36.3535 6.35348 34.6405 5.9763C34.7555 6.55058 34.8648 7.05751 34.9661 7.5267L34.9677 7.53416L34.9688 7.53959L34.9715 7.55197L34.9739 7.56265C35.0995 8.14575 35.2127 8.67128 35.3083 9.19681C35.5406 10.7345 35.7729 12.3012 35.86 13.868C35.889 14.3322 35.4825 15.0575 35.076 15.2606C34.2921 15.6668 34.3211 16.131 34.6115 16.7693C34.8864 17.3679 35.168 17.9698 35.4507 18.5739C36.0037 19.7559 36.5606 20.9464 37.0794 22.1369C37.8633 23.9647 37.5149 24.7481 35.6567 25.4734C35.5791 25.5079 35.4886 25.5373 35.3975 25.5668C35.182 25.6368 34.9631 25.7078 34.9018 25.8506C34.205 27.4173 33.5663 28.9841 32.9565 30.5798C32.5791 31.5372 32.2597 32.4657 31.9403 33.4231C31.8769 33.6132 31.7909 33.8061 31.7052 33.9983C31.5162 34.4222 31.3287 34.8427 31.3887 35.222C31.9403 38.6746 30.1982 40.5024 26.7431 39.9512C25.1172 39.7191 23.4913 39.516 21.8073 39.3129C21.7767 41.0248 21.7622 41.8348 22.1544 42.3072C22.5067 42.7315 23.1871 42.8834 24.4785 43.1717C25.3785 43.3748 26.2786 43.5779 27.1496 43.868C29.0102 44.4992 30.8708 45.1503 32.7551 45.8098C34.0757 46.272 35.408 46.7383 36.7601 47.2046C41.5798 41.779 46.4865 36.2665 51.3934 30.7539C53.1354 28.81 53.4258 26.9241 52.0612 24.661C49.5815 20.5243 47.0411 16.4179 44.5057 12.3199C43.5381 10.7558 42.5712 9.19293 41.6088 7.63007C41.2914 7.12262 40.9768 6.60951 40.6614 6.09516L40.6579 6.0893L40.6538 6.08253C39.9623 4.95419 39.2672 3.82005 38.5311 2.72678C37.5439 1.21807 36.1793 0.347667 33.9437 0.37668C34.2697 0.586921 34.6006 0.780025 34.9228 0.968062L34.9239 0.968706L34.9251 0.969327L34.9266 0.970151C36.3818 1.81902 37.6627 2.56625 37.5439 4.32252Z" fill="url(#paint0_linear_911:816)"/>
<path d="M171.419 26.8056C171.741 25.7951 172.074 24.7501 172.439 23.6415C171.654 23.6415 170.896 23.6497 170.157 23.6578C168.49 23.6758 166.914 23.6929 165.325 23.6125C164.077 23.5545 163.583 23.9897 163.264 25.1792C162.61 27.624 161.88 30.0687 161.106 32.658L161.105 32.6618C160.814 33.6359 160.517 34.6304 160.215 35.6531C160.011 35.0425 159.813 34.4446 159.618 33.8575L159.1 32.2948C158.436 30.2922 157.807 28.3969 157.167 26.5139C156.15 23.5545 156.15 23.5545 153.044 23.5545C152.658 23.5545 152.245 23.5198 151.831 23.485C150.779 23.3966 149.72 23.3077 149.095 23.7866C148.411 24.3041 148.142 25.3385 147.874 26.3629C147.767 26.7744 147.66 27.1842 147.527 27.5584C146.656 30.1116 145.785 32.6938 144.798 35.6241C143.666 31.7653 142.649 28.3127 141.575 24.8601C141.43 24.3959 141.052 23.6996 140.762 23.6996C138.585 23.6301 136.426 23.6345 134.167 23.6392C133.595 23.6403 133.016 23.6415 132.429 23.6415C135.129 31.9974 137.772 40.1212 140.443 48.216C140.559 48.5642 141.198 48.9124 141.604 48.9414C142.586 48.9888 143.559 48.9845 144.533 48.9802C145.345 48.9766 146.157 48.973 146.975 48.9994C147.818 49.0284 148.166 48.6512 148.398 47.9259C148.791 46.6872 149.227 45.4632 149.666 44.233L149.67 44.222L149.674 44.2097C149.85 43.7187 150.025 43.2268 150.198 42.7325C150.548 41.7433 150.904 40.7615 151.276 39.7394C151.645 38.7228 152.029 37.6665 152.434 36.5236C152.733 37.3657 153.027 38.1911 153.317 39.0036C154.404 42.0543 155.426 44.923 156.412 47.8098C156.731 48.6802 157.108 49.0574 158.067 48.9994C159.722 48.9123 161.377 48.9123 163.002 48.9994C163.961 49.0574 164.338 48.6802 164.628 47.8098C165.987 43.5363 167.373 39.2768 168.757 35.0217L168.762 35.0065L168.768 34.9909C169.363 33.1608 169.959 31.3315 170.551 29.5023C170.842 28.6173 171.126 27.7257 171.419 26.8056Z" fill="url(#paint1_linear_911:816)"/>
<path fill-rule="evenodd" clip-rule="evenodd" d="M108.683 46.5384L108.69 46.5496L110.242 48.8315C109.414 48.8315 108.606 48.8334 107.812 48.8353C105.483 48.8407 103.275 48.8458 101.067 48.8025C100.718 48.8025 100.283 48.3093 100.05 47.9321C99.8684 47.6638 99.6857 47.3955 99.5027 47.127C98.5187 45.6823 97.5303 44.2311 96.6244 42.7387C96.0727 41.8103 95.4049 41.4331 94.1565 41.8393V48.8025H85.7655V23.9379C85.7999 23.915 85.8343 23.8831 85.8668 23.8529C85.9168 23.8064 85.9627 23.7638 85.9978 23.7638C87.5664 23.7812 89.1349 23.7673 90.7019 23.7534C94.356 23.7209 98.0014 23.6885 101.618 24.054C107.454 24.6342 110.503 29.5085 109.051 35.0211C108.383 37.4292 106.67 38.9959 104.435 40.3016C105.81 42.3116 107.127 44.2492 108.499 46.268L108.683 46.5384ZM94.1855 35.5143C94.6956 35.5143 95.1915 35.5257 95.6776 35.5369C96.7406 35.5614 97.7568 35.5849 98.7729 35.4853C100.021 35.3402 100.892 34.6149 100.922 33.1932C100.951 31.7716 100.138 30.9882 98.831 30.8722C97.7903 30.7722 96.7357 30.7962 95.6579 30.8208C95.1721 30.8319 94.6816 30.8431 94.1855 30.8431V35.5143Z" fill="url(#paint2_linear_911:816)"/>
<path d="M119.04 39.195H131.176V33.0441H119.04V30.4909H132.047V23.7597H110.794V48.7114H132.221V41.8642H119.04V39.195Z" fill="url(#paint3_linear_911:816)"/>
<path d="M84.5521 29.6824C82.2584 31.017 80.0228 32.3226 77.8161 33.6282C74.8837 30.3207 72.2415 29.7694 70.0349 31.9164C67.8283 34.0634 67.8283 38.5315 70.064 40.5915C72.3286 42.6804 75.0869 42.0421 77.9613 38.7056C79.3884 39.502 80.8155 40.3102 82.2502 41.1226C83.063 41.583 83.8783 42.0447 84.6973 42.5064C82.4616 47.5547 76.3354 50.311 70.2091 49.1214C64.2861 47.9899 60.0181 42.9416 59.8438 36.8487C59.6406 30.4657 63.5022 25.2143 69.5413 23.5895C75.6095 21.9357 81.6777 24.3439 84.5521 29.6824Z" fill="url(#paint4_linear_911:816)"/>
<path fill-rule="evenodd" clip-rule="evenodd" d="M153.475 19.0011C157.685 19.0011 160.907 15.7225 160.907 11.3995C160.907 7.16353 157.743 3.88499 153.562 3.88499C149.352 3.88499 146.158 7.13452 146.158 11.4866C146.158 15.7225 149.323 19.0011 153.475 19.0011ZM153.62 17.9856C150.078 18.0146 147.348 15.1713 147.319 11.4575C147.29 7.71479 149.991 4.84244 153.504 4.84244C157.017 4.87146 159.746 7.7438 159.746 11.4575C159.746 15.1423 157.104 17.9566 153.62 17.9856Z" fill="url(#paint5_linear_911:816)"/>
<path fill-rule="evenodd" clip-rule="evenodd" d="M104.469 4.26754C105.158 4.26754 105.838 4.24827 106.511 4.22923C108.02 4.18647 109.488 4.14488 110.915 4.32557C114.515 4.76077 116.954 7.72016 117.041 11.3178C117.128 14.7705 114.893 17.7879 111.437 18.4262C109.887 18.7079 108.28 18.7384 106.646 18.7694C105.925 18.783 105.198 18.7968 104.469 18.8324V4.26754ZM105.602 4.99288V17.7589C106.045 17.7589 106.478 17.7622 106.904 17.7655C107.732 17.7719 108.531 17.778 109.318 17.7589C109.841 17.7589 110.392 17.6718 110.886 17.5848C113.76 17.0045 115.706 14.7124 115.851 11.7821C115.996 8.8807 114.254 6.15342 111.496 5.51513C110.23 5.22335 108.926 5.16631 107.591 5.10795C106.935 5.07926 106.271 5.05025 105.602 4.99288Z" fill="url(#paint6_linear_911:816)"/>
<path d="M133.101 13.4968C133.099 13.0182 133.098 12.5341 133.098 12.0426C136.32 12.0426 139.311 12.0426 142.447 12.1296C142.447 12.6453 142.445 13.1498 142.443 13.6463C142.438 15.1054 142.432 16.4963 142.476 17.9033C142.476 18.1071 142.662 18.3252 142.843 18.5375C142.92 18.6275 142.996 18.7164 143.056 18.8027C143.108 18.6991 143.179 18.5955 143.249 18.4919C143.376 18.3054 143.502 18.1189 143.521 17.9323C143.583 17.4787 143.571 17.0397 143.559 16.5945V16.5906L143.559 16.5554L143.558 16.524L143.556 16.4421C143.554 16.3905 143.553 16.3388 143.552 16.2869C143.551 16.2071 143.55 16.127 143.55 16.0464V4.29594C143.422 4.29594 143.283 4.29204 143.157 4.28852C142.94 4.28246 142.766 4.27758 142.766 4.29594C142.569 6.43447 142.426 8.57299 142.286 10.6851L142.273 10.882H133.098C133.098 10.3991 133.099 9.92181 133.101 9.44861V9.4427C133.107 8.04145 133.112 6.67643 133.068 5.31142C133.068 5.05089 132.902 4.80421 132.732 4.55224C132.656 4.43943 132.58 4.32555 132.517 4.2089C132.462 4.3268 132.394 4.44469 132.325 4.56258C132.174 4.82187 132.023 5.08115 132.023 5.34043C131.994 9.43134 131.994 13.5513 132.023 17.6422C132.023 17.8774 132.169 18.1258 132.317 18.3786C132.389 18.5 132.46 18.6223 132.517 18.7447C132.58 18.6281 132.656 18.5142 132.732 18.4014C132.902 18.1494 133.068 17.9027 133.068 17.6422C133.112 16.2765 133.107 14.9109 133.101 13.4968Z" fill="url(#paint7_linear_911:816)"/>
<path d="M62.1906 10.8488H71.5687C71.5687 10.3671 71.5669 9.88898 71.565 9.41366C71.5595 7.99961 71.5542 6.60989 71.5977 5.22017C71.5977 4.98808 71.7267 4.75599 71.8558 4.5239C71.9203 4.40782 71.9848 4.29175 72.0332 4.17568C72.0974 4.28561 72.1789 4.39553 72.2605 4.50545C72.4372 4.74369 72.6139 4.98193 72.6139 5.22017C72.6429 9.36911 72.6429 13.518 72.6139 17.667C72.6139 17.9316 72.4567 18.2105 72.3027 18.4836C72.2372 18.5998 72.1723 18.715 72.1203 18.8275C72.0333 18.7985 71.939 18.7696 71.8448 18.7406C71.7988 18.7264 71.7528 18.7123 71.7077 18.6982C71.66 18.6833 71.6134 18.6684 71.5687 18.6535V12.0093H62.1906C62.1906 12.4919 62.1924 12.969 62.1942 13.442C62.1996 14.8456 62.2049 16.2128 62.1615 17.58C62.1615 17.8305 62.0206 18.081 61.875 18.34C61.8013 18.471 61.7264 18.6041 61.6679 18.7405C61.6121 18.6289 61.5384 18.5144 61.464 18.3987C61.3062 18.1536 61.1453 17.9036 61.1453 17.667C61.1163 13.518 61.1163 9.36911 61.1453 5.22017C61.1453 4.95987 61.3076 4.69958 61.4623 4.45141C61.5145 4.36763 61.5658 4.28524 61.6098 4.2047C61.6698 4.30737 61.7423 4.41257 61.8156 4.5188C61.9908 4.7728 62.1701 5.03271 62.1906 5.2782C62.2098 6.4682 62.2035 7.67089 62.1971 8.91149C62.1939 9.54621 62.1906 10.1909 62.1906 10.8488Z" fill="url(#paint8_linear_911:816)"/>
<path d="M23.3885 48.0878L23.5275 48.207C23.5654 48.2396 23.6031 48.2722 23.6406 48.3049C23.7076 48.3631 23.7738 48.4213 23.8385 48.4795C23.8579 48.4602 23.8804 48.4408 23.903 48.4215C23.9482 48.3828 23.9933 48.3441 24.0128 48.3054C23.4077 47.672 22.8098 47.0386 22.2118 46.4052L22.1959 46.3883C21.5941 45.7507 20.9924 45.1132 20.3834 44.4756C17.9841 41.9662 15.5795 39.4674 13.1741 36.9679L13.1541 36.9472C9.94827 33.616 6.74116 30.2834 3.54347 26.9224C0.756173 23.9921 1.22069 20.1913 4.53064 18.0153C5.66594 17.2589 6.81656 16.533 7.97133 15.8045L7.97386 15.8028C8.41294 15.5258 8.85261 15.2484 9.29227 14.9688C11.2956 13.6922 13.299 12.4157 15.4476 11.052C15.2969 11.0383 15.1914 11.0182 15.116 11.0038C15.0315 10.9876 14.9847 10.9787 14.954 10.994C14.0121 11.5367 13.0687 12.0762 12.1255 12.6155L12.1226 12.6171C9.08366 14.3547 6.04701 16.091 3.07889 17.9282C-0.521361 20.1333 -0.869797 23.963 2.12078 26.9514C9.03098 33.8567 15.9992 40.7909 22.9384 47.6961C23.0837 47.8267 23.2361 47.9573 23.3885 48.0878Z" fill="url(#paint9_linear_911:816)"/>
<path d="M76.0441 4.11754C79.2669 4.11754 82.3736 4.11755 85.4512 4.14656C85.6509 4.14656 85.8505 4.29741 86.0502 4.44825C86.1409 4.51682 86.2316 4.58539 86.3223 4.63979C86.2463 4.68536 86.1683 4.73889 86.0894 4.79308C85.8669 4.94577 85.6364 5.10401 85.4222 5.10401C82.7223 5.13302 80.0224 5.13302 77.1774 5.13302L77.1764 10.9067C77.5045 10.9067 77.8327 10.9061 78.1607 10.9053L78.9181 10.9031H78.9193C80.6596 10.8976 82.3958 10.8922 84.1157 10.9357C84.377 10.9357 84.6383 11.0436 84.8996 11.1516C85.0448 11.2115 85.1899 11.2715 85.3351 11.3129C85.1916 11.3743 85.0482 11.4575 84.9047 11.5406C84.6417 11.693 84.3787 11.8454 84.1157 11.8642C82.3985 11.9076 80.665 11.9023 78.9031 11.8968C78.5578 11.8958 78.2115 11.8947 77.864 11.894C77.616 11.8935 77.3675 11.8932 77.1183 11.8932V17.7829H80.5444C80.9591 17.7829 81.3719 17.7811 81.7838 17.7793C83.0159 17.7738 84.2399 17.7684 85.4803 17.8119C85.6963 17.8119 85.8991 17.9314 86.1064 18.0536C86.2057 18.1121 86.306 18.1712 86.4094 18.2181C86.3085 18.2786 86.2111 18.3601 86.1147 18.4408C85.9339 18.5922 85.7568 18.7404 85.5674 18.7404C82.4316 18.7694 79.296 18.7694 76.0441 18.7694V4.11754Z" fill="url(#paint10_linear_911:816)"/>
<path fill-rule="evenodd" clip-rule="evenodd" d="M92.6822 7.89786C91.0273 11.4085 89.4013 14.9482 87.7754 18.4878C87.8916 18.6039 88.0367 18.7489 88.1819 18.836C88.2799 18.7469 88.3999 18.6606 88.5207 18.5737C88.7934 18.3774 89.0708 18.1777 89.111 17.9365C89.7788 14.7741 91.8983 14.2228 94.6566 14.658C95.0341 14.716 95.4405 14.716 95.818 14.658C98.344 14.1938 100.086 15.0062 100.638 17.6754L100.648 17.7119C100.703 17.9056 100.762 18.1158 100.899 18.1977C101.17 18.4009 101.459 18.5515 101.752 18.704L101.854 18.7576C101.904 18.7834 101.953 18.8094 102.002 18.836C102.046 18.7778 102.082 18.7197 102.119 18.6615C102.141 18.6256 102.164 18.5898 102.188 18.5539C102.202 18.5319 102.218 18.5098 102.235 18.4878C101.441 16.7835 100.651 15.0752 99.8606 13.3659L99.8427 13.3269L99.8353 13.311L99.8303 13.2997C98.4917 10.4044 97.1517 7.50616 95.7889 4.61932C95.3534 3.7199 94.6856 3.74891 94.221 4.61932C93.6704 5.69083 93.1777 6.79125 92.6849 7.89173L92.6822 7.89786ZM93.2083 9.07385C93.7715 7.84393 94.3476 6.58584 94.947 5.25762C96.2825 8.15898 97.473 10.7702 98.7214 13.5555H91.1725C91.8446 12.0523 92.5167 10.5843 93.2083 9.07385Z" fill="url(#paint11_linear_911:816)"/>
<path d="M128.796 6.21008C128.683 6.19394 128.563 6.18453 128.442 6.17498C128.126 6.15023 127.799 6.12456 127.548 5.97798C126.125 5.10757 124.615 4.75941 122.989 5.04954C121.48 5.31066 120.463 6.29713 120.376 7.57373C120.289 9.08243 121.218 9.89481 122.496 10.301C123.081 10.4871 123.678 10.6427 124.277 10.7986L124.278 10.799C124.986 10.9832 125.695 11.1678 126.386 11.4035C128.622 12.1289 129.551 13.3764 129.435 15.2333C129.319 17.0902 127.983 18.4538 125.864 18.831C123.164 19.3242 120.841 18.5118 118.837 16.742L118.84 16.7286C118.868 16.559 118.896 16.3901 118.925 16.2488C119.06 16.2681 119.204 16.2713 119.347 16.2745C119.634 16.281 119.911 16.2873 120.086 16.4229C121.625 17.6124 123.309 18.1347 125.225 17.9606C126.938 17.8155 128.128 16.8 128.303 15.4074C128.506 13.9567 127.78 13.0283 125.951 12.419C125.334 12.2181 124.706 12.0605 124.079 11.9034C123.348 11.7201 122.619 11.5374 121.915 11.2875C119.999 10.5911 119.215 9.45961 119.273 7.74781C119.331 6.09404 120.376 4.7304 122.205 4.23716C124.644 3.56985 126.88 4.06308 128.825 5.62981C128.854 5.80389 128.825 6.00699 128.796 6.21008Z" fill="url(#paint12_linear_911:816)"/>
<path d="M168.716 14.7956V5.10506C169.127 5.10506 169.523 5.10698 169.907 5.10884C171.015 5.11422 172.029 5.11914 173.042 5.07604C173.215 5.07604 173.404 4.91545 173.585 4.76154C173.648 4.70857 173.709 4.65639 173.768 4.61182C173.688 4.5581 173.61 4.49334 173.533 4.42945C173.361 4.28631 173.194 4.14761 173.014 4.14761C169.791 4.1186 166.539 4.1186 163.316 4.14761C163.146 4.14761 162.988 4.27052 162.827 4.39635C162.74 4.46384 162.652 4.53217 162.561 4.58281C162.642 4.63958 162.721 4.70316 162.799 4.76593C163 4.92771 163.194 5.08415 163.403 5.10506C164.274 5.16308 165.145 5.1921 166.016 5.10506C167.265 4.989 167.671 5.39519 167.642 6.7008C167.569 9.77047 167.598 12.8603 167.626 15.9534C167.632 16.5732 167.637 17.1931 167.642 17.813C167.642 18.0168 167.828 18.2349 168.01 18.4472C168.086 18.5372 168.162 18.6261 168.223 18.7124C168.275 18.6088 168.345 18.5052 168.415 18.4016C168.542 18.2151 168.669 18.0285 168.687 17.842C168.731 17.0804 168.725 16.3188 168.72 15.5572C168.718 15.3033 168.716 15.0495 168.716 14.7956Z" fill="url(#paint13_linear_911:816)"/>
<defs>
<linearGradient id="paint0_linear_911:816" x1="112.776" y1="49.4096" x2="112.776" y2="0.375975" gradientUnits="userSpaceOnUse">
<stop stop-color="#5B5A84"/>
<stop offset="1" stop-color="#33344E"/>
</linearGradient>
<linearGradient id="paint1_linear_911:816" x1="112.776" y1="49.4096" x2="112.776" y2="0.375975" gradientUnits="userSpaceOnUse">
<stop stop-color="#5B5A84"/>
<stop offset="1" stop-color="#33344E"/>
</linearGradient>
<linearGradient id="paint2_linear_911:816" x1="112.776" y1="49.4096" x2="112.776" y2="0.375975" gradientUnits="userSpaceOnUse">
<stop stop-color="#5B5A84"/>
<stop offset="1" stop-color="#33344E"/>
</linearGradient>
<linearGradient id="paint3_linear_911:816" x1="112.776" y1="49.4096" x2="112.776" y2="0.375975" gradientUnits="userSpaceOnUse">
<stop stop-color="#5B5A84"/>
<stop offset="1" stop-color="#33344E"/>
</linearGradient>
<linearGradient id="paint4_linear_911:816" x1="112.776" y1="49.4096" x2="112.776" y2="0.375975" gradientUnits="userSpaceOnUse">
<stop stop-color="#5B5A84"/>
<stop offset="1" stop-color="#33344E"/>
</linearGradient>
<linearGradient id="paint5_linear_911:816" x1="112.776" y1="49.4096" x2="112.776" y2="0.375975" gradientUnits="userSpaceOnUse">
<stop stop-color="#5B5A84"/>
<stop offset="1" stop-color="#33344E"/>
</linearGradient>
<linearGradient id="paint6_linear_911:816" x1="112.776" y1="49.4096" x2="112.776" y2="0.375975" gradientUnits="userSpaceOnUse">
<stop stop-color="#5B5A84"/>
<stop offset="1" stop-color="#33344E"/>
</linearGradient>
<linearGradient id="paint7_linear_911:816" x1="112.776" y1="49.4096" x2="112.776" y2="0.375975" gradientUnits="userSpaceOnUse">
<stop stop-color="#5B5A84"/>
<stop offset="1" stop-color="#33344E"/>
</linearGradient>
<linearGradient id="paint8_linear_911:816" x1="112.776" y1="49.4096" x2="112.776" y2="0.375975" gradientUnits="userSpaceOnUse">
<stop stop-color="#5B5A84"/>
<stop offset="1" stop-color="#33344E"/>
</linearGradient>
<linearGradient id="paint9_linear_911:816" x1="112.776" y1="49.4096" x2="112.776" y2="0.375975" gradientUnits="userSpaceOnUse">
<stop stop-color="#5B5A84"/>
<stop offset="1" stop-color="#33344E"/>
</linearGradient>
<linearGradient id="paint10_linear_911:816" x1="112.776" y1="49.4096" x2="112.776" y2="0.375975" gradientUnits="userSpaceOnUse">
<stop stop-color="#5B5A84"/>
<stop offset="1" stop-color="#33344E"/>
</linearGradient>
<linearGradient id="paint11_linear_911:816" x1="112.776" y1="49.4096" x2="112.776" y2="0.375975" gradientUnits="userSpaceOnUse">
<stop stop-color="#5B5A84"/>
<stop offset="1" stop-color="#33344E"/>
</linearGradient>
<linearGradient id="paint12_linear_911:816" x1="112.776" y1="49.4096" x2="112.776" y2="0.375975" gradientUnits="userSpaceOnUse">
<stop stop-color="#5B5A84"/>
<stop offset="1" stop-color="#33344E"/>
</linearGradient>
<linearGradient id="paint13_linear_911:816" x1="112.776" y1="49.4096" x2="112.776" y2="0.375975" gradientUnits="userSpaceOnUse">
<stop stop-color="#5B5A84"/>
<stop offset="1" stop-color="#33344E"/>
</linearGradient>
</defs>
</svg>
